{
  "links": {
  "current_page": 1,
  "first_page_url": "http://brottsplatskartan.se/api/events?limit=10&area=&location=visby&type=&page=1",
  "from": 1,
  "last_page": 17,
  "last_page_url": "http://brottsplatskartan.se/api/events?limit=10&area=&location=visby&type=&page=17",
  "next_page_url": "http://brottsplatskartan.se/api/events?limit=10&area=&location=visby&type=&page=2",
  "path": "http://brottsplatskartan.se/api/events",
  "per_page": 10,
  "prev_page_url": null,
  "to": 10,
  "total": 164
  },
  "data": [
  {
  "id": 170449,
  "pubdate_iso8601": "2020-08-23T11:54:59+0200",
  "pubdate_unix": "1598176499",
  "title_type": "Våldtäkt",
  "title_location": "Gotland",
  "description": "En man är frihetsberövad misstänkt för den våldtäkt som polisen utreder.",
  "content": "<p>Den man som är misstänkt för brottet greps i sin bostad vid 10-tiden på söndagsförmiddagen. Den troliga brottsplatsen är utomhus i Visby och var till en början avspärrad, den avspärrningen hävdes strax före klockan 11:30.<br /><br />Brottstiden är vid 03:30-tiden på söndagsmorgonen och innan dess hade den misstänkte och brottsoffret haft viss kontakt med varandra. <br /><br />Under dagen kommer förhör hållas med mannen och sedan kommer åklagare besluta om han fortsatt ska vara frihetsberövad. Brottsoffret är förd till sjukhus för undersökning.<br /><br /><strong>Uppdatering klockan 12:58</strong><br />Mannen är efter beslut av åklagare anhållen misstänkt för våldtäkt.</p>\n",
  "content_formatted": "<p><p>Den man som är misstänkt för brottet greps i sin bostad vid 10-tiden på söndagsförmiddagen. Den troliga brottsplatsen är utomhus i Visby och var till en början avspärrad, den avspärrningen hävdes strax före klockan 11:30.<br /><br />Brottstiden är vid 03:30-tiden på söndagsmorgonen och innan dess hade den misstänkte och brottsoffret haft viss kontakt med varandra. <br /><br />Under dagen kommer förhör hållas med mannen och sedan kommer åklagare besluta om han fortsatt ska vara frihetsberövad. Brottsoffret är förd till sjukhus för undersökning.<br /><br /><strong>Uppdatering klockan 12:58</strong><br />Mannen är efter beslut av åklagare anhållen misstänkt för våldtäkt.</p></p><p></p>",
  "content_teaser": "Den man som är misstänkt för brottet greps i sin bostad vid 10-tiden på söndagsförmiddagen. Den troliga brottsplatsen är utomhus i Visby och var till en början...",
  "location_string": "Visby, Gotland, Gotlands län",
  "date_human": "1 månad sedan",
  "lat": 57.6348,
  "lng": 18.29484,
  "viewport_northeast_lat": "57.6546871",
  "viewport_northeast_lng": "18.3608929",
  "viewport_southwest_lat": "57.5997060",
  "viewport_southwest_lng": "18.2562848",
  "administrative_area_level_1": "Gotlands län",
  "administrative_area_level_2": null,
  "image": "https://kartbilder.brottsplatskartan.se/styles/basic-preview/static/auto/640x320.jpg?latlng=1&fill=rgba%28255%2C0%2C0%2C.2%29&width=2&stroke=rgba%28255%2C0%2C0%2C.2%29&path=57.6546871%2C18.3608929%7C57.5997060%2C18.3608929%7C57.5997060%2C18.2562848%7C57.6546871%2C18.2562848&padding=0.4",
  "external_source_link": "https://polisen.se/aktuellt/handelser/2020/augusti/23/23-augusti-1154-valdtakt-gotland/",
  "permalink": "https://brottsplatskartan.se/gotlands-lan/valdtakt-gotland-170449"
  },
  {
  "id": 168540,
  "pubdate_iso8601": "2020-08-05T19:26:39+0200",
  "pubdate_unix": "1596648399",
  "title_type": "Narkotikabrott",
  "title_location": "Gotland",
  "description": "Den okände person som lämnat kvar eller tappat misstänkt narkotika på en restaurang i Visby är misstänkt för ringa narkotikabrott.",
  "content": "<p>Polisen har hämtat den misstänkta narkotika som ingår i utredningen angående ringa narkotikabrott.</p>",
  "content_formatted": "<p><p>Polisen har hämtat den misstänkta narkotika som ingår i utredningen angående ringa narkotikabrott.</p></p>",
  "content_teaser": "Polisen har hämtat den misstänkta narkotika som ingår i utredningen angående ringa narkotikabrott.",
  "location_string": "Visby, Gotland, Gotlands län",
  "date_human": "1 månad sedan",
  "lat": 57.6348,
  "lng": 18.29484,
  "viewport_northeast_lat": "57.6546871",
  "viewport_northeast_lng": "18.3608929",
  "viewport_southwest_lat": "57.5997060",
  "viewport_southwest_lng": "18.2562848",
  "administrative_area_level_1": "Gotlands län",
  "administrative_area_level_2": null,
  "image": "https://kartbilder.brottsplatskartan.se/styles/basic-preview/static/auto/640x320.jpg?latlng=1&fill=rgba%28255%2C0%2C0%2C.2%29&width=2&stroke=rgba%28255%2C0%2C0%2C.2%29&path=57.6546871%2C18.3608929%7C57.5997060%2C18.3608929%7C57.5997060%2C18.2562848%7C57.6546871%2C18.2562848&padding=0.4",
  "external_source_link": "https://polisen.se/aktuellt/handelser/2020/augusti/5/05-augusti-1443-narkotikabrott-gotland/",
  "permalink": "https://brottsplatskartan.se/gotlands-lan/narkotikabrott-gotland-visby-168540"
  },
  {
  "id": 166739,
  "pubdate_iso8601": "2020-07-17T15:38:10+0200",
  "pubdate_unix": "1594993090",
  "title_type": "Trafikolycka",
  "title_location": "Gotland",
  "description": "En bilist har backat på en motorcykel i en rondell vid hamnen i Visby. Mc-föraren är lindrigt skadad.",
  "content": "<p>Patrullen har rapporterat bilföraren för vårdslöshet i trafik.</p>\n<p>Mc-föraren kommer själv att åka till sjukhuset för att få lättare skador kontrollerade. </p>",
  "content_formatted": "<p><p>Patrullen har rapporterat bilföraren för vårdslöshet i trafik.</p></p><p><p>Mc-föraren kommer själv att åka till sjukhuset för att få lättare skador kontrollerade. </p></p>",
  "content_teaser": "Patrullen har rapporterat bilföraren för vårdslöshet i trafik. \n Mc-föraren kommer själv att åka till sjukhuset för att få lättare skador kontrollerade. ",
  "location_string": "Visby, Gotland, Gotlands län",
  "date_human": "2 månader sedan",
  "lat": 57.6348,
  "lng": 18.29484,
  "viewport_northeast_lat": "57.6546871",
  "viewport_northeast_lng": "18.3608929",
  "viewport_southwest_lat": "57.5997060",
  "viewport_southwest_lng": "18.2562848",
  "administrative_area_level_1": "Gotlands län",
  "administrative_area_level_2": null,
  "image": "https://kartbilder.brottsplatskartan.se/styles/basic-preview/static/auto/640x320.jpg?latlng=1&fill=rgba%28255%2C0%2C0%2C.2%29&width=2&stroke=rgba%28255%2C0%2C0%2C.2%29&path=57.6546871%2C18.3608929%7C57.5997060%2C18.3608929%7C57.5997060%2C18.2562848%7C57.6546871%2C18.2562848&padding=0.4",
  "external_source_link": "https://polisen.se/aktuellt/handelser/2020/juli/17/17-juli-1428-trafikolycka-gotland/",
  "permalink": "https://brottsplatskartan.se/gotlands-lan/trafikolycka-gotland-visby-166739"
  },
  {
  "id": 162828,
  "pubdate_iso8601": "2020-06-04T21:39:23+0200",
  "pubdate_unix": "1591299563",
  "title_type": "Trafikolycka,  personskada",
  "title_location": "Gotland",
  "description": "I samband med att polispatrullen skulle stoppa och kontrollera en cyklist i Visby blev cyklisten påkörd och föll av.",
  "content": "<p>Påkörningen var i låg hastighet och cyklisten är förd till sjukhus för kontroll av en sårskada i ansiktet. Han är misstänkt för narkotikabrott/innehav.</p>\n<p>En anmälan har också upprättats om vårdslöshet i trafik och vållande till kroppsskada.</p>\n<p>Händelsen kommer också, enligt gällande rutin när någon skadas i samband med polisingripande, att anmälas till Särskilda utredningar (SU).</p>",
  "content_formatted": "<p><p>Påkörningen var i låg hastighet och cyklisten är förd till sjukhus för kontroll av en sårskada i ansiktet. Han är misstänkt för narkotikabrott/innehav.</p></p><p><p>En anmälan har också upprättats om vårdslöshet i trafik och vållande till kroppsskada.</p></p><p><p>Händelsen kommer också, enligt gällande rutin när någon skadas i samband med polisingripande, att anmälas till Särskilda utredningar (SU).</p></p>",
  "content_teaser": "Påkörningen var i låg hastighet och cyklisten är förd till sjukhus för kontroll av en sårskada i ansiktet. Han är misstänkt för narkotikabrott/innehav. \n En anm...",
  "location_string": "Visby, Gotland, Gotlands län",
  "date_human": "3 månader sedan",
  "lat": 57.6348,
  "lng": 18.29484,
  "viewport_northeast_lat": "57.6546871",
  "viewport_northeast_lng": "18.3608929",
  "viewport_southwest_lat": "57.5997060",
  "viewport_southwest_lng": "18.2562848",
  "administrative_area_level_1": "Gotlands län",
  "administrative_area_level_2": null,
  "image": "https://kartbilder.brottsplatskartan.se/styles/basic-preview/static/auto/640x320.jpg?latlng=1&fill=rgba%28255%2C0%2C0%2C.2%29&width=2&stroke=rgba%28255%2C0%2C0%2C.2%29&path=57.6546871%2C18.3608929%7C57.5997060%2C18.3608929%7C57.5997060%2C18.2562848%7C57.6546871%2C18.2562848&padding=0.4",
  "external_source_link": "https://polisen.se/aktuellt/handelser/2020/juni/4/04-juni-1816-trafikolycka-personskada-gotland/",
  "permalink": "https://brottsplatskartan.se/gotlands-lan/trafikolycka-personskada-gotland-visby-162828"
  },
  {
  "id": 162283,
  "pubdate_iso8601": "2020-05-31T09:11:09+0200",
  "pubdate_unix": "1590909069",
  "title_type": "Misshandel,  grov",
  "title_location": "Gotlands län",
  "description": "Polis kallas till centrala Visby med anledning av att en kvinna knivskurits i en lägenhet.",
  "content": "<p>Kvinnan som är i 25-30 årsåldern är förd till sjukhus för vård. Skadorna bedöms initialt inte som livshotande.</p>\n<p>En förundersökning gällande grov misshandel är inledd.</p>\n<p>En kvinna i 25-30 årsåldern har gripits och är misstänkt för brottet.</p>\n<p>En avspärrning och teknisk undersökning är genomförd på brottsplatsen.</p>\n<p><strong>Uppdatering klockan 11:15</strong></p>\n<p>Den frihetsberövade personen har anhållits av åklagare.</p>",
  "content_formatted": "<p><p>Kvinnan som är i 25-30 årsåldern är förd till sjukhus för vård. Skadorna bedöms initialt inte som livshotande.</p></p><p><p>En förundersökning gällande grov misshandel är inledd.</p></p><p><p>En kvinna i 25-30 årsåldern har gripits och är misstänkt för brottet.</p></p><p><p>En avspärrning och teknisk undersökning är genomförd på brottsplatsen.</p></p><p><p><strong>Uppdatering klockan 11:15</strong></p></p><p><p>Den frihetsberövade personen har anhållits av åklagare.</p></p>",
  "content_teaser": "Kvinnan som är i 25-30 årsåldern är förd till sjukhus för vård. Skadorna bedöms initialt inte som livshotande. \n En förundersökning gällande grov misshandel är...",
  "location_string": "Visby, Gotlands län",
  "date_human": "3 månader sedan",
  "lat": 57.6348,
  "lng": 18.29484,
  "viewport_northeast_lat": "57.6546871",
  "viewport_northeast_lng": "18.3608929",
  "viewport_southwest_lat": "57.5997060",
  "viewport_southwest_lng": "18.2562848",
  "administrative_area_level_1": "Gotlands län",
  "administrative_area_level_2": null,
  "image": "https://kartbilder.brottsplatskartan.se/styles/basic-preview/static/auto/640x320.jpg?latlng=1&fill=rgba%28255%2C0%2C0%2C.2%29&width=2&stroke=rgba%28255%2C0%2C0%2C.2%29&path=57.6546871%2C18.3608929%7C57.5997060%2C18.3608929%7C57.5997060%2C18.2562848%7C57.6546871%2C18.2562848&padding=0.4",
  "external_source_link": "https://polisen.se/aktuellt/handelser/2020/maj/31/31-maj-0420-misshandel-grov-gotlands-lan/",
  "permalink": "https://brottsplatskartan.se/gotlands-lan/misshandel-grov-gotlands-lan-visby-162283"
  },
  {
  "id": 162142,
  "pubdate_iso8601": "2020-05-29T16:46:31+0200",
  "pubdate_unix": "1590763591",
  "title_type": "Mord/dråp,  försök",
  "title_location": "Gotlands län",
  "description": "Polis och ambulans kallas till Visby med anledning av att en person påträffats utomhus med stickskada.",
  "content": "<p>Den skadade personen är förd med ambulans till sjukhus. Skadeläget är oklart.</p>\n<p>Flera polispatruller arbetar med att leta efter gärningspersonen/personerna och att utföra utredningåtgärder.</p>\n<p>Brottplatsen som är lokaliserad och är utomhus kommer att spärras av för teknisk undersökning.</p>\n<p>Ingen är i nuläget gripen.</p>\n<p><strong>Uppdatering klockan 19:55</strong></p>\n<p>Den skadade personen är en man i 20-årsåldern och brottsplatsen är i området kring Visby domkyrka.</p>",
  "content_formatted": "<p><p>Den skadade personen är förd med ambulans till sjukhus. Skadeläget är oklart.</p></p><p><p>Flera polispatruller arbetar med att leta efter gärningspersonen/personerna och att utföra utredningåtgärder.</p></p><p><p>Brottplatsen som är lokaliserad och är utomhus kommer att spärras av för teknisk undersökning.</p></p><p><p>Ingen är i nuläget gripen.</p></p><p><p><strong>Uppdatering klockan 19:55</strong></p></p><p><p>Den skadade personen är en man i 20-årsåldern och brottsplatsen är i området kring Visby domkyrka.</p></p>",
  "content_teaser": "Den skadade personen är förd med ambulans till sjukhus. Skadeläget är oklart. \n Flera polispatruller arbetar med att leta efter gärningspersonen/personerna och...",
  "location_string": "Visby, Gotlands län",
  "date_human": "3 månader sedan",
  "lat": 57.6348,
  "lng": 18.29484,
  "viewport_northeast_lat": "57.6546871",
  "viewport_northeast_lng": "18.3608929",
  "viewport_southwest_lat": "57.5997060",
  "viewport_southwest_lng": "18.2562848",
  "administrative_area_level_1": "Gotlands län",
  "administrative_area_level_2": null,
  "image": "https://kartbilder.brottsplatskartan.se/styles/basic-preview/static/auto/640x320.jpg?latlng=1&fill=rgba%28255%2C0%2C0%2C.2%29&width=2&stroke=rgba%28255%2C0%2C0%2C.2%29&path=57.6546871%2C18.3608929%7C57.5997060%2C18.3608929%7C57.5997060%2C18.2562848%7C57.6546871%2C18.2562848&padding=0.4",
  "external_source_link": "https://polisen.se/aktuellt/handelser/2020/maj/29/29-maj-1600-morddrap-forsok-gotlands-lan/",
  "permalink": "https://brottsplatskartan.se/gotlands-lan/mord-drap-forsok-gotlands-lan-visby-162142"
  },
  {
  "id": 162027,
  "pubdate_iso8601": "2020-05-28T19:19:23+0200",
  "pubdate_unix": "1590686363",
  "title_type": "Vapenlagen",
  "title_location": "Gotland",
  "description": "Patrullerna har inte påträffat den unga person som inringaren sett vid en skola i Visby med ett vapenliknande föremål i handen.",
  "content": "<p>Poliserna har pratat med personer som uppehöll sig i området men ingen säger sig ha sett något konstigt.</p>",
  "content_formatted": "<p><p>Poliserna har pratat med personer som uppehöll sig i området men ingen säger sig ha sett något konstigt.</p></p>",
  "content_teaser": "Poliserna har pratat med personer som uppehöll sig i området men ingen säger sig ha sett något konstigt.",
  "location_string": "Visby, Gotland, Gotlands län",
  "date_human": "3 månader sedan",
  "lat": 57.6348,
  "lng": 18.29484,
  "viewport_northeast_lat": "57.6546871",
  "viewport_northeast_lng": "18.3608929",
  "viewport_southwest_lat": "57.5997060",
  "viewport_southwest_lng": "18.2562848",
  "administrative_area_level_1": "Gotlands län",
  "administrative_area_level_2": null,
  "image": "https://kartbilder.brottsplatskartan.se/styles/basic-preview/static/auto/640x320.jpg?latlng=1&fill=rgba%28255%2C0%2C0%2C.2%29&width=2&stroke=rgba%28255%2C0%2C0%2C.2%29&path=57.6546871%2C18.3608929%7C57.5997060%2C18.3608929%7C57.5997060%2C18.2562848%7C57.6546871%2C18.2562848&padding=0.4",
  "external_source_link": "https://polisen.se/aktuellt/handelser/2020/maj/28/28-maj-1755-vapenlagen-gotland/",
  "permalink": "https://brottsplatskartan.se/gotlands-lan/vapenlagen-gotland-visby-162027"
  },
  {
  "id": 159873,
  "pubdate_iso8601": "2020-05-07T13:05:27+0200",
  "pubdate_unix": "1588849527",
  "title_type": "Trafikkontroll",
  "title_location": "Gotland",
  "description": "Tio förare rapporterade för hastighetsöverträdelse efter hastighetskontroll i Visby.",
  "content": "<p>Kontrollen ägde rum på Kung Magnus väg i Visby där det bland annat ligger en skola och en lekplats i närheten av vägen.</p>\n<p>Tio förare rapporterades för att ha överskridit den högsta tillåtna hastigheten som är 30 km/h.</p>\n<p>Ingen förare körde så fort att körkortet behövde omhändertagas.</p>",
  "content_formatted": "<p><p>Kontrollen ägde rum på Kung Magnus väg i Visby där det bland annat ligger en skola och en lekplats i närheten av vägen.</p></p><p><p>Tio förare rapporterades för att ha överskridit den högsta tillåtna hastigheten som är 30 km/h.</p></p><p><p>Ingen förare körde så fort att körkortet behövde omhändertagas.</p></p>",
  "content_teaser": "Kontrollen ägde rum på Kung Magnus väg i Visby där det bland annat ligger en skola och en lekplats i närheten av vägen. \n Tio förare rapporterades för att ha öv...",
  "location_string": "Visby, Kung Magnus Väg, Högsta, Gotland, Gotlands län",
  "date_human": "4 månader sedan",
  "lat": 57.638333,
  "lng": 18.3009715,
  "viewport_northeast_lat": "57.6396820",
  "viewport_northeast_lng": "18.3023205",
  "viewport_southwest_lat": "57.6369840",
  "viewport_southwest_lng": "18.2996225",
  "administrative_area_level_1": "Gotlands län",
  "administrative_area_level_2": null,
  "image": "https://kartbilder.brottsplatskartan.se/styles/basic-preview/static/auto/640x320.jpg?latlng=1&fill=rgba%28255%2C0%2C0%2C.2%29&width=2&stroke=rgba%28255%2C0%2C0%2C.2%29&path=57.6396820%2C18.3023205%7C57.6369840%2C18.3023205%7C57.6369840%2C18.2996225%7C57.6396820%2C18.2996225&padding=0.4",
  "external_source_link": "https://polisen.se/aktuellt/handelser/2020/maj/7/07-maj-1024-trafikkontroll-gotland/",
  "permalink": "https://brottsplatskartan.se/gotlands-lan/trafikkontroll-gotland-visby-159873"
  },
  {
  "id": 158176,
  "pubdate_iso8601": "2020-04-21T21:59:17+0200",
  "pubdate_unix": "1587499157",
  "title_type": "Rattfylleri",
  "title_location": "Gotland",
  "description": "Misstänkt drograttfylleri då fordonsförare i Visby kontrollerades.",
  "content": "<p>En fordonsförare stoppades och kontrollerades i Visby. Misstanke om drograttfylleri uppstod och en anmälan med denna rubricering kommer att upprättas.</p>\n<p>Föraren fick följa med patrullen för fortsatt utredning.</p>",
  "content_formatted": "<p><p>En fordonsförare stoppades och kontrollerades i Visby. Misstanke om drograttfylleri uppstod och en anmälan med denna rubricering kommer att upprättas.</p></p><p><p>Föraren fick följa med patrullen för fortsatt utredning.</p></p>",
  "content_teaser": "En fordonsförare stoppades och kontrollerades i Visby. Misstanke om drograttfylleri uppstod och en anmälan med denna rubricering kommer att upprättas. \n Föraren...",
  "location_string": "Visby, Gotland, Gotlands län",
  "date_human": "5 månader sedan",
  "lat": 57.6348,
  "lng": 18.29484,
  "viewport_northeast_lat": "57.6546871",
  "viewport_northeast_lng": "18.3608929",
  "viewport_southwest_lat": "57.5997060",
  "viewport_southwest_lng": "18.2562848",
  "administrative_area_level_1": "Gotlands län",
  "administrative_area_level_2": null,
  "image": "https://kartbilder.brottsplatskartan.se/styles/basic-preview/static/auto/640x320.jpg?latlng=1&fill=rgba%28255%2C0%2C0%2C.2%29&width=2&stroke=rgba%28255%2C0%2C0%2C.2%29&path=57.6546871%2C18.3608929%7C57.5997060%2C18.3608929%7C57.5997060%2C18.2562848%7C57.6546871%2C18.2562848&padding=0.4",
  "external_source_link": "https://polisen.se/aktuellt/handelser/2020/april/21/21-april-2114-rattfylleri-gotland/",
  "permalink": "https://brottsplatskartan.se/gotlands-lan/rattfylleri-gotland-visby-158176"
  },
  {
  "id": 154552,
  "pubdate_iso8601": "2020-03-18T21:39:45+0100",
  "pubdate_unix": "1584563985",
  "title_type": "Misshandel",
  "title_location": "Gotland",
  "description": "Polis kallas till en adress i Visby med anledning av att två män har blivit osams över att en fotboll sparkats över på grannens villatomt.",
  "content": "<p>I samband med argumentationen har den ene mannen slagit till den andra och det har även förekommit hot.</p>\n<p>Polisen kommer att upprätta anmälan gällande misshandel och olaga hot.</p>\n",
  "content_formatted": "<p><p>I samband med argumentationen har den ene mannen slagit till den andra och det har även förekommit hot.</p></p><p><p>Polisen kommer att upprätta anmälan gällande misshandel och olaga hot.</p></p><p></p>",
  "content_teaser": "I samband med argumentationen har den ene mannen slagit till den andra och det har även förekommit hot. \n Polisen kommer att upprätta anmälan gällande misshande...",
  "location_string": "Visby, Gotland, Gotlands län",
  "date_human": "6 månader sedan",
  "lat": 57.6348,
  "lng": 18.29484,
  "viewport_northeast_lat": "57.6546871",
  "viewport_northeast_lng": "18.3608929",
  "viewport_southwest_lat": "57.5997060",
  "viewport_southwest_lng": "18.2562848",
  "administrative_area_level_1": "Gotlands län",
  "administrative_area_level_2": null,
  "image": "https://kartbilder.brottsplatskartan.se/styles/basic-preview/static/auto/640x320.jpg?latlng=1&fill=rgba%28255%2C0%2C0%2C.2%29&width=2&stroke=rgba%28255%2C0%2C0%2C.2%29&path=57.6546871%2C18.3608929%7C57.5997060%2C18.3608929%7C57.5997060%2C18.2562848%7C57.6546871%2C18.2562848&padding=0.4",
  "external_source_link": "https://polisen.se/aktuellt/handelser/2020/mars/18/18-mars-1618-misshandel-gotland/",
  "permalink": "https://brottsplatskartan.se/gotlands-lan/misshandel-gotland-visby-154552"
  }
  ]
  }